Classification with KNN and Logistic Regression
…
---
## Logistic Regression

Notice:  Now our predictions are of the type **pred_class**!

R did the hard part for us.

```r
preds <- ins_fit %>% predict(ins)
preds
```

```
## # A tibble: 431 x 1
##    .pred_class
##    <fct>      
##  1 no         
##  2 yes        
##  3 no         
##  4 no         
##  5 yes        
##  6 no         
##  7 yes        
##  8 no         
##  9 yes        
## 10 no         
## # ... with 421 more rows
```
…
---
## Logistic Regression

Suppose we wanted to see the predicted **probabilities**:

```r
ins_fit %>% predict(ins, type = "prob")
```

```
## # A tibble: 431 x 2
##    .pred_no .pred_yes
##       <dbl>     <dbl>
##  1  0.773     0.227  
##  2  0.419     0.581  
##  3  0.994     0.00553
##  4  0.995     0.00535
##  5  0.0800    0.920  
##  6  0.996     0.00391
##  7  0.109     0.891  
##  8  0.952     0.0479 
##  9  0.00334   0.997  
## 10  0.996     0.00354
## # ... with 421 more rows
```
…
